<?xml version="1.0"?>
<!DOCTYPE svg PUBLIC "-//W3C//DTD SVG 1.0//EN" "http://www.w3.org/TR/2001/REC-SVG-20010904/DTD/svg10.dtd">
<svg xmlns="http://www.w3.org/2000/svg">
<g font-family="Source Code Pro" font-size="24px">
<text x="0" y="24" xml:space="preserve"><tspan fill="#de541e" font-weight="bold">use</tspan>&#160;<tspan fill="#22223b">std</tspan>::<tspan fill="#22223b">fs</tspan>::<tspan fill="#22223b">File</tspan>;</text>
<text x="0" y="56" xml:space="preserve"><tspan fill="#de541e" font-weight="bold">use</tspan>&#160;<tspan fill="#22223b">std</tspan>::<tspan fill="#22223b">io</tspan>::<tspan fill="#22223b">prelude</tspan>::<tspan fill="#22223b">*</tspan>;</text>
<text x="0" y="88" xml:space="preserve"></text>
<text x="0" y="120" xml:space="preserve"><tspan fill="#de541e" font-weight="bold">const</tspan>&#160;<tspan fill="#22223b">TAU_N</tspan>:&#160;<tspan fill="#d5b942">f64</tspan>&#160;<tspan fill="#22223b">=</tspan>&#160;<tspan fill="#0fa3b1">881.5</tspan>;</text>
<text x="0" y="152" xml:space="preserve"><tspan fill="#de541e" font-weight="bold">const</tspan>&#160;<tspan fill="#22223b">MEV_PER_K</tspan>:&#160;<tspan fill="#d5b942">f64</tspan>&#160;<tspan fill="#22223b">=</tspan>&#160;<tspan fill="#0fa3b1">8.617330e-11</tspan>;</text>
<text x="0" y="184" xml:space="preserve"></text>
<text x="0" y="216" xml:space="preserve"><tspan fill="#de541e" font-weight="bold">enum</tspan>&#160;<tspan fill="#22223b">State</tspan>&#160;{</text>
<text x="0" y="248" xml:space="preserve">&#160;&#160;&#160;&#160;<tspan fill="#22223b">Equilibrium</tspan>,</text>
<text x="0" y="280" xml:space="preserve">&#160;&#160;&#160;&#160;<tspan fill="#22223b">NeutronDecay</tspan>&#160;{</text>
<text x="0" y="312" xml:space="preserve">&#160;&#160;&#160;&#160;&#160;&#160;&#160;&#160;<tspan fill="#22223b">decouple_ratio</tspan>:&#160;<tspan fill="#d5b942">f64</tspan>,</text>
<text x="0" y="344" xml:space="preserve">&#160;&#160;&#160;&#160;&#160;&#160;&#160;&#160;<tspan fill="#22223b">decouple_time</tspan>:&#160;<tspan fill="#d5b942">f64</tspan>,</text>
<text x="0" y="376" xml:space="preserve">&#160;&#160;&#160;&#160;},</text>
<text x="0" y="408" xml:space="preserve">&#160;&#160;&#160;&#160;<tspan fill="#22223b">FreezeOut</tspan>&#160;{</text>
<text x="0" y="440" xml:space="preserve">&#160;&#160;&#160;&#160;&#160;&#160;&#160;&#160;<tspan fill="#22223b">freeze_out_ratio</tspan>:&#160;<tspan fill="#d5b942">f64</tspan>,</text>
<text x="0" y="472" xml:space="preserve">&#160;&#160;&#160;&#160;},</text>
<text x="0" y="504" xml:space="preserve">}</text>
<text x="0" y="536" xml:space="preserve"></text>
<text x="0" y="568" xml:space="preserve"><tspan fill="#de541e" font-weight="bold">fn</tspan>&#160;<tspan fill="#22223b">time_to_temperature</tspan>(<tspan fill="#22223b">time</tspan>:&#160;<tspan fill="#d5b942">f64</tspan>)&#160;-&gt;&#160;<tspan fill="#d5b942">f64</tspan>&#160;{</text>
<text x="0" y="600" xml:space="preserve">&#160;&#160;&#160;&#160;<tspan fill="#0fa3b1">1.3e10</tspan>&#160;<tspan fill="#22223b">/</tspan>&#160;<tspan fill="#22223b">time</tspan>.<tspan fill="#22223b">sqrt</tspan>()&#160;<tspan fill="#22223b">*</tspan>&#160;<tspan fill="#22223b">MEV_PER_K</tspan></text>
<text x="0" y="632" xml:space="preserve">}</text>
<text x="0" y="664" xml:space="preserve"></text>
<text x="0" y="696" xml:space="preserve"><tspan fill="#de541e" font-weight="bold">fn</tspan>&#160;<tspan fill="#22223b">compute_pn_ratio</tspan>(</text>
<text x="0" y="728" xml:space="preserve">&#160;&#160;&#160;&#160;<tspan fill="#22223b">neutron_decouple_temperature</tspan>:&#160;<tspan fill="#d5b942">f64</tspan>,</text>
<text x="0" y="760" xml:space="preserve">&#160;&#160;&#160;&#160;<tspan fill="#22223b">freeze_out_temperature</tspan>:&#160;<tspan fill="#d5b942">f64</tspan>,</text>
<text x="0" y="792" xml:space="preserve">&#160;&#160;&#160;&#160;<tspan fill="#22223b">filename</tspan>:&#160;<tspan fill="#de541e">&amp;</tspan><tspan fill="#d5b942">str</tspan>,</text>
<text x="0" y="824" xml:space="preserve">)&#160;{</text>
<text x="0" y="856" xml:space="preserve">&#160;&#160;&#160;&#160;<tspan fill="#de541e" font-weight="bold">let</tspan>&#160;<tspan fill="#22223b">n_steps</tspan>&#160;<tspan fill="#22223b">=</tspan>&#160;<tspan fill="#0fa3b1">1000</tspan>;</text>
<text x="0" y="888" xml:space="preserve">&#160;&#160;&#160;&#160;<tspan fill="#de541e" font-weight="bold">let</tspan>&#160;<tspan fill="#22223b">start_time_log</tspan>:&#160;<tspan fill="#d5b942">f64</tspan>&#160;<tspan fill="#22223b">=</tspan>&#160;<tspan fill="#22223b">-</tspan><tspan fill="#0fa3b1">2.</tspan>;</text>
<text x="0" y="920" xml:space="preserve">&#160;&#160;&#160;&#160;<tspan fill="#de541e" font-weight="bold">let</tspan>&#160;<tspan fill="#22223b">end_time_log</tspan>:&#160;<tspan fill="#d5b942">f64</tspan>&#160;<tspan fill="#22223b">=</tspan>&#160;<tspan fill="#0fa3b1">5.</tspan>;</text>
<text x="0" y="952" xml:space="preserve">&#160;&#160;&#160;&#160;<tspan fill="#de541e" font-weight="bold">let</tspan>&#160;<tspan fill="#22223b">factor</tspan>&#160;<tspan fill="#22223b">=</tspan>&#160;(<tspan fill="#22223b">end_time_log</tspan>&#160;<tspan fill="#22223b">-</tspan>&#160;<tspan fill="#22223b">start_time_log</tspan>)&#160;<tspan fill="#22223b">/</tspan>&#160;<tspan fill="#22223b">n_steps</tspan>&#160;<tspan fill="#de541e" font-weight="bold">as</tspan>&#160;<tspan fill="#d5b942">f64</tspan>;</text>
<text x="0" y="984" xml:space="preserve"></text>
<text x="0" y="1016" xml:space="preserve">&#160;&#160;&#160;&#160;<tspan fill="#de541e" font-weight="bold">let</tspan>&#160;<tspan fill="#de541e" font-weight="bold">mut</tspan>&#160;<tspan fill="#22223b">state</tspan>&#160;<tspan fill="#22223b">=</tspan>&#160;<tspan fill="#22223b">State</tspan>::<tspan fill="#22223b">Equilibrium</tspan>;</text>
<text x="0" y="1048" xml:space="preserve"></text>
<text x="0" y="1080" xml:space="preserve">&#160;&#160;&#160;&#160;<tspan fill="#de541e" font-weight="bold">let</tspan>&#160;<tspan fill="#de541e" font-weight="bold">mut</tspan>&#160;<tspan fill="#22223b">file</tspan>&#160;<tspan fill="#22223b">=</tspan>&#160;<tspan fill="#22223b">File</tspan>::<tspan fill="#22223b">create</tspan>(<tspan fill="#22223b">filename</tspan>).<tspan fill="#22223b">expect</tspan>(<tspan fill="#0fa3b1">&quot;</tspan><tspan fill="#0fa3b1">Error:&#160;couldn&#39;t&#160;open&#160;file</tspan><tspan fill="#0fa3b1">&quot;</tspan>);</text>
<text x="0" y="1112" xml:space="preserve"></text>
<text x="0" y="1144" xml:space="preserve">&#160;&#160;&#160;&#160;<tspan fill="#de541e" font-weight="bold">for</tspan>&#160;<tspan fill="#22223b">i</tspan>&#160;<tspan fill="#de541e" font-weight="bold">in</tspan>&#160;<tspan fill="#0fa3b1">0</tspan>..(<tspan fill="#22223b">n_steps</tspan>&#160;<tspan fill="#22223b">+</tspan>&#160;<tspan fill="#0fa3b1">1</tspan>)&#160;{</text>
<text x="0" y="1176" xml:space="preserve">&#160;&#160;&#160;&#160;&#160;&#160;&#160;&#160;<tspan fill="#de541e" font-weight="bold">let</tspan>&#160;<tspan fill="#22223b">time</tspan>&#160;<tspan fill="#22223b">=</tspan>&#160;(<tspan fill="#0fa3b1">10_</tspan><tspan fill="#de541e" font-weight="bold">f64</tspan>).<tspan fill="#22223b">powf</tspan>((<tspan fill="#22223b">i</tspan>&#160;<tspan fill="#de541e" font-weight="bold">as</tspan>&#160;<tspan fill="#d5b942">f64</tspan>)&#160;<tspan fill="#22223b">*</tspan>&#160;<tspan fill="#22223b">factor</tspan>&#160;<tspan fill="#22223b">+</tspan>&#160;<tspan fill="#22223b">start_time_log</tspan>);</text>
<text x="0" y="1208" xml:space="preserve">&#160;&#160;&#160;&#160;&#160;&#160;&#160;&#160;<tspan fill="#de541e" font-weight="bold">let</tspan>&#160;<tspan fill="#22223b">temperature</tspan>&#160;<tspan fill="#22223b">=</tspan>&#160;<tspan fill="#22223b">time_to_temperature</tspan>(<tspan fill="#22223b">time</tspan>);</text>
<text x="0" y="1240" xml:space="preserve"></text>
<text x="0" y="1272" xml:space="preserve">&#160;&#160;&#160;&#160;&#160;&#160;&#160;&#160;<tspan fill="#de541e" font-weight="bold">let</tspan>&#160;<tspan fill="#22223b">pn_ratio</tspan>:&#160;<tspan fill="#d5b942">f64</tspan>;</text>
<text x="0" y="1304" xml:space="preserve"></text>
<text x="0" y="1336" xml:space="preserve">&#160;&#160;&#160;&#160;&#160;&#160;&#160;&#160;<tspan fill="#de541e" font-weight="bold">match</tspan>&#160;<tspan fill="#22223b">state</tspan>&#160;{</text>
<text x="0" y="1368" xml:space="preserve">&#160;&#160;&#160;&#160;&#160;&#160;&#160;&#160;&#160;&#160;&#160;&#160;<tspan fill="#22223b">State</tspan>::<tspan fill="#22223b">Equilibrium</tspan>&#160;<tspan fill="#22223b">=</tspan><tspan fill="#22223b">&gt;</tspan>&#160;{</text>
<text x="0" y="1400" xml:space="preserve">&#160;&#160;&#160;&#160;&#160;&#160;&#160;&#160;&#160;&#160;&#160;&#160;&#160;&#160;&#160;&#160;<tspan fill="#22223b">pn_ratio</tspan>&#160;<tspan fill="#22223b">=</tspan>&#160;(<tspan fill="#22223b">-</tspan><tspan fill="#0fa3b1">1.29</tspan>&#160;<tspan fill="#22223b">/</tspan>&#160;<tspan fill="#22223b">temperature</tspan>).<tspan fill="#22223b">exp</tspan>();</text>
<text x="0" y="1432" xml:space="preserve">&#160;&#160;&#160;&#160;&#160;&#160;&#160;&#160;&#160;&#160;&#160;&#160;&#160;&#160;&#160;&#160;<tspan fill="#de541e" font-weight="bold">if</tspan>&#160;<tspan fill="#22223b">temperature</tspan>&#160;<tspan fill="#22223b">&lt;</tspan><tspan fill="#22223b">=</tspan>&#160;<tspan fill="#22223b">neutron_decouple_temperature</tspan>&#160;{</text>
<text x="0" y="1464" xml:space="preserve">&#160;&#160;&#160;&#160;&#160;&#160;&#160;&#160;&#160;&#160;&#160;&#160;&#160;&#160;&#160;&#160;&#160;&#160;&#160;&#160;<tspan fill="#22223b">state</tspan>&#160;<tspan fill="#22223b">=</tspan>&#160;<tspan fill="#22223b">State</tspan>::<tspan fill="#22223b">NeutronDecay</tspan>&#160;{</text>
<text x="0" y="1496" xml:space="preserve">&#160;&#160;&#160;&#160;&#160;&#160;&#160;&#160;&#160;&#160;&#160;&#160;&#160;&#160;&#160;&#160;&#160;&#160;&#160;&#160;&#160;&#160;&#160;&#160;<tspan fill="#22223b">decouple_ratio</tspan>:&#160;<tspan fill="#22223b">pn_ratio</tspan>,</text>
<text x="0" y="1528" xml:space="preserve">&#160;&#160;&#160;&#160;&#160;&#160;&#160;&#160;&#160;&#160;&#160;&#160;&#160;&#160;&#160;&#160;&#160;&#160;&#160;&#160;&#160;&#160;&#160;&#160;<tspan fill="#22223b">decouple_time</tspan>:&#160;<tspan fill="#22223b">time</tspan>,</text>
<text x="0" y="1560" xml:space="preserve">&#160;&#160;&#160;&#160;&#160;&#160;&#160;&#160;&#160;&#160;&#160;&#160;&#160;&#160;&#160;&#160;&#160;&#160;&#160;&#160;};</text>
<text x="0" y="1592" xml:space="preserve">&#160;&#160;&#160;&#160;&#160;&#160;&#160;&#160;&#160;&#160;&#160;&#160;&#160;&#160;&#160;&#160;}</text>
<text x="0" y="1624" xml:space="preserve">&#160;&#160;&#160;&#160;&#160;&#160;&#160;&#160;&#160;&#160;&#160;&#160;}</text>
<text x="0" y="1656" xml:space="preserve">&#160;&#160;&#160;&#160;&#160;&#160;&#160;&#160;&#160;&#160;&#160;&#160;<tspan fill="#22223b">State</tspan>::<tspan fill="#22223b">NeutronDecay</tspan>&#160;{</text>
<text x="0" y="1688" xml:space="preserve">&#160;&#160;&#160;&#160;&#160;&#160;&#160;&#160;&#160;&#160;&#160;&#160;&#160;&#160;&#160;&#160;<tspan fill="#22223b">decouple_ratio</tspan>,</text>
<text x="0" y="1720" xml:space="preserve">&#160;&#160;&#160;&#160;&#160;&#160;&#160;&#160;&#160;&#160;&#160;&#160;&#160;&#160;&#160;&#160;<tspan fill="#22223b">decouple_time</tspan>,</text>
<text x="0" y="1752" xml:space="preserve">&#160;&#160;&#160;&#160;&#160;&#160;&#160;&#160;&#160;&#160;&#160;&#160;}&#160;<tspan fill="#22223b">=</tspan><tspan fill="#22223b">&gt;</tspan>&#160;{</text>
<text x="0" y="1784" xml:space="preserve">&#160;&#160;&#160;&#160;&#160;&#160;&#160;&#160;&#160;&#160;&#160;&#160;&#160;&#160;&#160;&#160;<tspan fill="#de541e" font-weight="bold">let</tspan>&#160;<tspan fill="#22223b">t</tspan>&#160;<tspan fill="#22223b">=</tspan>&#160;<tspan fill="#22223b">time</tspan>&#160;<tspan fill="#22223b">-</tspan>&#160;<tspan fill="#22223b">decouple_time</tspan>;</text>
<text x="0" y="1816" xml:space="preserve">&#160;&#160;&#160;&#160;&#160;&#160;&#160;&#160;&#160;&#160;&#160;&#160;&#160;&#160;&#160;&#160;<tspan fill="#22223b">pn_ratio</tspan>&#160;<tspan fill="#22223b">=</tspan>&#160;<tspan fill="#22223b">decouple_ratio</tspan>&#160;<tspan fill="#22223b">*</tspan>&#160;(<tspan fill="#22223b">-</tspan><tspan fill="#22223b">t</tspan>&#160;<tspan fill="#22223b">/</tspan>&#160;<tspan fill="#22223b">TAU_N</tspan>).<tspan fill="#22223b">exp</tspan>()</text>
<text x="0" y="1848" xml:space="preserve">&#160;&#160;&#160;&#160;&#160;&#160;&#160;&#160;&#160;&#160;&#160;&#160;&#160;&#160;&#160;&#160;&#160;&#160;&#160;&#160;<tspan fill="#22223b">/</tspan>&#160;(<tspan fill="#0fa3b1">1.</tspan>&#160;<tspan fill="#22223b">+</tspan>&#160;<tspan fill="#22223b">decouple_ratio</tspan>&#160;<tspan fill="#22223b">*</tspan>&#160;(<tspan fill="#0fa3b1">1.</tspan>&#160;<tspan fill="#22223b">-</tspan>&#160;(<tspan fill="#22223b">-</tspan><tspan fill="#22223b">t</tspan>&#160;<tspan fill="#22223b">/</tspan>&#160;<tspan fill="#22223b">TAU_N</tspan>).<tspan fill="#22223b">exp</tspan>()));</text>
<text x="0" y="1880" xml:space="preserve"></text>
<text x="0" y="1912" xml:space="preserve">&#160;&#160;&#160;&#160;&#160;&#160;&#160;&#160;&#160;&#160;&#160;&#160;&#160;&#160;&#160;&#160;<tspan fill="#de541e" font-weight="bold">if</tspan>&#160;<tspan fill="#22223b">temperature</tspan>&#160;<tspan fill="#22223b">&lt;</tspan><tspan fill="#22223b">=</tspan>&#160;<tspan fill="#22223b">freeze_out_temperature</tspan>&#160;{</text>
<text x="0" y="1944" xml:space="preserve">&#160;&#160;&#160;&#160;&#160;&#160;&#160;&#160;&#160;&#160;&#160;&#160;&#160;&#160;&#160;&#160;&#160;&#160;&#160;&#160;<tspan fill="#22223b">state</tspan>&#160;<tspan fill="#22223b">=</tspan>&#160;<tspan fill="#22223b">State</tspan>::<tspan fill="#22223b">FreezeOut</tspan>&#160;{</text>
<text x="0" y="1976" xml:space="preserve">&#160;&#160;&#160;&#160;&#160;&#160;&#160;&#160;&#160;&#160;&#160;&#160;&#160;&#160;&#160;&#160;&#160;&#160;&#160;&#160;&#160;&#160;&#160;&#160;<tspan fill="#22223b">freeze_out_ratio</tspan>:&#160;<tspan fill="#22223b">pn_ratio</tspan>,</text>
<text x="0" y="2008" xml:space="preserve">&#160;&#160;&#160;&#160;&#160;&#160;&#160;&#160;&#160;&#160;&#160;&#160;&#160;&#160;&#160;&#160;&#160;&#160;&#160;&#160;};</text>
<text x="0" y="2040" xml:space="preserve">&#160;&#160;&#160;&#160;&#160;&#160;&#160;&#160;&#160;&#160;&#160;&#160;&#160;&#160;&#160;&#160;}</text>
<text x="0" y="2072" xml:space="preserve">&#160;&#160;&#160;&#160;&#160;&#160;&#160;&#160;&#160;&#160;&#160;&#160;}</text>
<text x="0" y="2104" xml:space="preserve">&#160;&#160;&#160;&#160;&#160;&#160;&#160;&#160;&#160;&#160;&#160;&#160;<tspan fill="#22223b">State</tspan>::<tspan fill="#22223b">FreezeOut</tspan>&#160;{&#160;<tspan fill="#22223b">freeze_out_ratio</tspan>&#160;}&#160;<tspan fill="#22223b">=</tspan><tspan fill="#22223b">&gt;</tspan>&#160;{</text>
<text x="0" y="2136" xml:space="preserve">&#160;&#160;&#160;&#160;&#160;&#160;&#160;&#160;&#160;&#160;&#160;&#160;&#160;&#160;&#160;&#160;<tspan fill="#22223b">pn_ratio</tspan>&#160;<tspan fill="#22223b">=</tspan>&#160;<tspan fill="#22223b">freeze_out_ratio</tspan>;</text>
<text x="0" y="2168" xml:space="preserve">&#160;&#160;&#160;&#160;&#160;&#160;&#160;&#160;&#160;&#160;&#160;&#160;}</text>
<text x="0" y="2200" xml:space="preserve">&#160;&#160;&#160;&#160;&#160;&#160;&#160;&#160;}</text>
<text x="0" y="2232" xml:space="preserve"></text>
<text x="0" y="2264" xml:space="preserve">&#160;&#160;&#160;&#160;&#160;&#160;&#160;&#160;<tspan fill="#22223b">write</tspan><tspan fill="#22223b">!</tspan>(<tspan fill="#22223b">&amp;</tspan><tspan fill="#de541e" font-weight="bold">mut</tspan>&#160;<tspan fill="#22223b">file</tspan>,&#160;<tspan fill="#0fa3b1">&quot;</tspan><tspan fill="#0fa3b1">{},&#160;{},&#160;{}</tspan><tspan fill="#0fa3b1">\n</tspan><tspan fill="#0fa3b1">&quot;</tspan>,&#160;<tspan fill="#22223b">time</tspan>,&#160;<tspan fill="#22223b">temperature</tspan>,&#160;<tspan fill="#22223b">pn_ratio</tspan>)</text>
<text x="0" y="2296" xml:space="preserve">&#160;&#160;&#160;&#160;&#160;&#160;&#160;&#160;&#160;&#160;&#160;&#160;.<tspan fill="#22223b">expect</tspan>(<tspan fill="#0fa3b1">&quot;</tspan><tspan fill="#0fa3b1">Error:&#160;couldn&#39;t&#160;write&#160;to&#160;file</tspan><tspan fill="#0fa3b1">&quot;</tspan>);</text>
<text x="0" y="2328" xml:space="preserve">&#160;&#160;&#160;&#160;}</text>
<text x="0" y="2360" xml:space="preserve">}</text>
<text x="0" y="2392" xml:space="preserve"></text>
<text x="0" y="2424" xml:space="preserve"><tspan fill="#de541e" font-weight="bold">fn</tspan>&#160;<tspan fill="#22223b">main</tspan>()&#160;{</text>
<text x="0" y="2456" xml:space="preserve">&#160;&#160;&#160;&#160;<tspan fill="#de541e" font-weight="bold">let</tspan>&#160;<tspan fill="#22223b">neutron_decouple_temperature</tspan>:&#160;<tspan fill="#d5b942">f64</tspan>&#160;<tspan fill="#22223b">=</tspan>&#160;<tspan fill="#0fa3b1">1.</tspan>;</text>
<text x="0" y="2488" xml:space="preserve">&#160;&#160;&#160;&#160;<tspan fill="#de541e" font-weight="bold">let</tspan>&#160;<tspan fill="#22223b">freeze_out_temperature</tspan>:&#160;<tspan fill="#d5b942">f64</tspan>&#160;<tspan fill="#22223b">=</tspan>&#160;<tspan fill="#0fa3b1">0.07</tspan>;</text>
<text x="0" y="2520" xml:space="preserve"></text>
<text x="0" y="2552" xml:space="preserve">&#160;&#160;&#160;&#160;<tspan fill="#22223b">compute_pn_ratio</tspan>(</text>
<text x="0" y="2584" xml:space="preserve">&#160;&#160;&#160;&#160;&#160;&#160;&#160;&#160;<tspan fill="#22223b">neutron_decouple_temperature</tspan>,</text>
<text x="0" y="2616" xml:space="preserve">&#160;&#160;&#160;&#160;&#160;&#160;&#160;&#160;<tspan fill="#22223b">freeze_out_temperature</tspan>,</text>
<text x="0" y="2648" xml:space="preserve">&#160;&#160;&#160;&#160;&#160;&#160;&#160;&#160;<tspan fill="#0fa3b1">&quot;</tspan><tspan fill="#0fa3b1">pn-ratio.csv</tspan><tspan fill="#0fa3b1">&quot;</tspan>,</text>
<text x="0" y="2680" xml:space="preserve">&#160;&#160;&#160;&#160;);</text>
<text x="0" y="2712" xml:space="preserve">&#160;&#160;&#160;&#160;<tspan fill="#22223b">compute_pn_ratio</tspan>(<tspan fill="#22223b">-</tspan><tspan fill="#0fa3b1">1.</tspan>,&#160;<tspan fill="#22223b">-</tspan><tspan fill="#0fa3b1">1.</tspan>,&#160;<tspan fill="#0fa3b1">&quot;</tspan><tspan fill="#0fa3b1">pn-ratio-nodecouple.csv</tspan><tspan fill="#0fa3b1">&quot;</tspan>);</text>
<text x="0" y="2744" xml:space="preserve">&#160;&#160;&#160;&#160;<tspan fill="#22223b">compute_pn_ratio</tspan>(<tspan fill="#22223b">neutron_decouple_temperature</tspan>,&#160;<tspan fill="#22223b">-</tspan><tspan fill="#0fa3b1">1.</tspan>,&#160;<tspan fill="#0fa3b1">&quot;</tspan><tspan fill="#0fa3b1">pn-ratio-nofreeze.csv</tspan><tspan fill="#0fa3b1">&quot;</tspan>);</text>
<text x="0" y="2776" xml:space="preserve">}</text>
<text x="0" y="2808" xml:space="preserve"></text></g></svg>
