<?xml version="1.0" encoding="UTF-8" standalone="no"?>
<svg
   xmlns:dc="http://purl.org/dc/elements/1.1/"
   xmlns:cc="http://creativecommons.org/ns#"
   xmlns:rdf="http://www.w3.org/1999/02/22-rdf-syntax-ns#"
   xmlns:svg="http://www.w3.org/2000/svg"
   xmlns="http://www.w3.org/2000/svg"
   xmlns:sodipodi="http://sodipodi.sourceforge.net/DTD/sodipodi-0.dtd"
   xmlns:inkscape="http://www.inkscape.org/namespaces/inkscape"
   version="1.1"
   id="svg9790"
   sodipodi:docname="statstar_intro.svg"
   inkscape:version="0.91 r13725">
  <metadata
     id="metadata9796">
    <rdf:RDF>
      <cc:Work
         rdf:about="">
        <dc:format>image/svg+xml</dc:format>
        <dc:type
           rdf:resource="http://purl.org/dc/dcmitype/StillImage" />
        <dc:title></dc:title>
      </cc:Work>
    </rdf:RDF>
  </metadata>
  <defs
     id="defs9794" />
  <sodipodi:namedview
     pagecolor="#ffffff"
     bordercolor="#666666"
     borderopacity="1"
     objecttolerance="10"
     gridtolerance="10"
     guidetolerance="10"
     inkscape:pageopacity="0"
     inkscape:pageshadow="2"
     inkscape:window-width="1680"
     inkscape:window-height="999"
     id="namedview9792"
     showgrid="false"
     inkscape:zoom="0.417193"
     inkscape:cx="399.24668"
     inkscape:cy="-508.42433"
     inkscape:window-x="0"
     inkscape:window-y="0"
     inkscape:window-maximized="1"
     inkscape:current-layer="svg9790"
     showguides="true"
     inkscape:guide-bbox="true" />
  <text
     style="font-size:22.35071373px;font-family:'Source Code Pro';stroke-width:0.93127972"
     id="text8"
     xml:space="preserve"
     y="339.58459"
     x="0"
     transform="scale(0.945015,1.0581843)"><tspan
   style="font-weight:bold;font-size:22.35071373px;fill:#d5b942;stroke-width:0.93127972"
   id="tspan2"
   font-weight="bold">     </tspan> <tspan
   style="font-weight:bold;font-size:22.35071373px;fill:#de541e;stroke-width:0.93127972"
   id="tspan4"
   font-weight="bold">Program </tspan><tspan
   style="font-size:22.35071373px;fill:#22223b;stroke-width:0.93127972"
   id="tspan6">STATSTAR</tspan></text>
  <text
     style="font-size:22.35071373px;font-family:'Source Code Pro';stroke-width:0.93127972"
     id="text12"
     xml:space="preserve"
     y="369.38556"
     x="0"
     transform="scale(0.945015,1.0581843)"><tspan
       style="font-size:22.35071373px;fill:#878472;stroke-width:0.93127972"
       id="tspan10">c</tspan></text>
  <text
     style="font-size:22.35071373px;font-family:'Source Code Pro';stroke-width:0.93127972"
     id="text18"
     xml:space="preserve"
     y="399.18649"
     x="0"
     transform="scale(0.945015,1.0581843)"><tspan
       style="font-size:22.35071373px;fill:#878472;stroke-width:0.93127972"
       id="tspan14" /><tspan
       style="font-size:22.35071373px;fill:#878472;stroke-width:0.93127972"
       id="tspan16">c  This program is listed in Appendix H of both &quot;An Introduction</tspan></text>
  <text
     style="font-size:22.35071373px;font-family:'Source Code Pro';stroke-width:0.93127972"
     id="text24"
     xml:space="preserve"
     y="428.98746"
     x="0"
     transform="scale(0.945015,1.0581843)"><tspan
       style="font-size:22.35071373px;fill:#878472;stroke-width:0.93127972"
       id="tspan20" /><tspan
       style="font-size:22.35071373px;fill:#878472;stroke-width:0.93127972"
       id="tspan22">c  to Modern Astrophysics,&quot; Bradley W. Carroll and Dale A. Ostlie,</tspan></text>
  <text
     style="font-size:22.35071373px;font-family:'Source Code Pro';stroke-width:0.93127972"
     id="text30"
     xml:space="preserve"
     y="458.78842"
     x="0"
     transform="scale(0.945015,1.0581843)"><tspan
       style="font-size:22.35071373px;fill:#878472;stroke-width:0.93127972"
       id="tspan26" /><tspan
       style="font-size:22.35071373px;fill:#878472;stroke-width:0.93127972"
       id="tspan28">c  Addison-Wesley Publishing Company, copyright 1996, and &quot;An </tspan></text>
  <text
     style="font-size:22.35071373px;font-family:'Source Code Pro';stroke-width:0.93127972"
     id="text36"
     xml:space="preserve"
     y="488.58936"
     x="0"
     transform="scale(0.945015,1.0581843)"><tspan
       style="font-size:22.35071373px;fill:#878472;stroke-width:0.93127972"
       id="tspan32" /><tspan
       style="font-size:22.35071373px;fill:#878472;stroke-width:0.93127972"
       id="tspan34">c  Introduction to Modern Stellar Astrophysics,&quot; Dale A. Ostlie</tspan></text>
  <text
     style="font-size:22.35071373px;font-family:'Source Code Pro';stroke-width:0.93127972"
     id="text42"
     xml:space="preserve"
     y="518.39032"
     x="0"
     transform="scale(0.945015,1.0581843)"><tspan
       style="font-size:22.35071373px;fill:#878472;stroke-width:0.93127972"
       id="tspan38" /><tspan
       style="font-size:22.35071373px;fill:#878472;stroke-width:0.93127972"
       id="tspan40">c  and Bradley W. Carroll, Addison-Wesley Publishing Company,</tspan></text>
  <text
     style="font-size:22.35071373px;font-family:'Source Code Pro';stroke-width:0.93127972"
     id="text48"
     xml:space="preserve"
     y="548.19128"
     x="0"
     transform="scale(0.945015,1.0581843)"><tspan
       style="font-size:22.35071373px;fill:#878472;stroke-width:0.93127972"
       id="tspan44" /><tspan
       style="font-size:22.35071373px;fill:#878472;stroke-width:0.93127972"
       id="tspan46">c  copyright 1996.</tspan></text>
  <text
     style="font-size:22.35071373px;font-family:'Source Code Pro';stroke-width:0.93127972"
     id="text54"
     xml:space="preserve"
     y="577.99219"
     x="0"
     transform="scale(0.945015,1.0581843)"><tspan
       style="font-size:22.35071373px;fill:#878472;stroke-width:0.93127972"
       id="tspan50" /><tspan
       style="font-size:22.35071373px;fill:#878472;stroke-width:0.93127972"
       id="tspan52">c</tspan></text>
  <text
     style="font-size:22.35071373px;font-family:'Source Code Pro';stroke-width:0.93127972"
     id="text60"
     xml:space="preserve"
     y="607.79315"
     x="0"
     transform="scale(0.945015,1.0581843)"><tspan
       style="font-size:22.35071373px;fill:#878472;stroke-width:0.93127972"
       id="tspan56" /><tspan
       style="font-size:22.35071373px;fill:#878472;stroke-width:0.93127972"
       id="tspan58">c</tspan></text>
  <text
     style="font-size:22.35071373px;font-family:'Source Code Pro';stroke-width:0.93127972"
     id="text66"
     xml:space="preserve"
     y="637.59412"
     x="0"
     transform="scale(0.945015,1.0581843)"><tspan
       style="font-size:22.35071373px;fill:#878472;stroke-width:0.93127972"
       id="tspan62" /><tspan
       style="font-size:22.35071373px;fill:#878472;stroke-width:0.93127972"
       id="tspan64">c  This program will calculate a static stellar model using the </tspan></text>
  <text
     style="font-size:22.35071373px;font-family:'Source Code Pro';stroke-width:0.93127972"
     id="text72"
     xml:space="preserve"
     y="667.39508"
     x="0"
     transform="scale(0.945015,1.0581843)"><tspan
       style="font-size:22.35071373px;fill:#878472;stroke-width:0.93127972"
       id="tspan68" /><tspan
       style="font-size:22.35071373px;fill:#878472;stroke-width:0.93127972"
       id="tspan70">c  equations developed in the text.  The user is expected to supply the</tspan></text>
  <text
     style="font-size:22.35071373px;font-family:'Source Code Pro';stroke-width:0.93127972"
     id="text78"
     xml:space="preserve"
     y="697.19604"
     x="0"
     transform="scale(0.945015,1.0581843)"><tspan
       style="font-size:22.35071373px;fill:#878472;stroke-width:0.93127972"
       id="tspan74" /><tspan
       style="font-size:22.35071373px;fill:#878472;stroke-width:0.93127972"
       id="tspan76">c  star's mass, luminosity, effective temperature, and composition </tspan></text>
  <text
     style="font-size:22.35071373px;font-family:'Source Code Pro';stroke-width:0.93127972"
     id="text84"
     xml:space="preserve"
     y="726.99695"
     x="0"
     transform="scale(0.945015,1.0581843)"><tspan
       style="font-size:22.35071373px;fill:#878472;stroke-width:0.93127972"
       id="tspan80" /><tspan
       style="font-size:22.35071373px;fill:#878472;stroke-width:0.93127972"
       id="tspan82">c  (X and Z).  If the choices for these quantities are not consistent </tspan></text>
  <text
     style="font-size:22.35071373px;font-family:'Source Code Pro';stroke-width:0.93127972"
     id="text90"
     xml:space="preserve"
     y="756.79791"
     x="0"
     transform="scale(0.945015,1.0581843)"><tspan
       style="font-size:22.35071373px;fill:#878472;stroke-width:0.93127972"
       id="tspan86" /><tspan
       style="font-size:22.35071373px;fill:#878472;stroke-width:0.93127972"
       id="tspan88">c  with the central boundary conditions, an error message will be </tspan></text>
  <text
     style="font-size:22.35071373px;font-family:'Source Code Pro';stroke-width:0.93127972"
     id="text96"
     xml:space="preserve"
     y="786.59888"
     x="0"
     transform="scale(0.945015,1.0581843)"><tspan
       style="font-size:22.35071373px;fill:#878472;stroke-width:0.93127972"
       id="tspan92" /><tspan
       style="font-size:22.35071373px;fill:#878472;stroke-width:0.93127972"
       id="tspan94">c  generated and the user will then need to supply a different set of</tspan></text>
  <text
     style="font-size:22.35071373px;font-family:'Source Code Pro';stroke-width:0.93127972"
     id="text102"
     xml:space="preserve"
     y="816.39984"
     x="0"
     transform="scale(0.945015,1.0581843)"><tspan
       style="font-size:22.35071373px;fill:#878472;stroke-width:0.93127972"
       id="tspan98" /><tspan
       style="font-size:22.35071373px;fill:#878472;stroke-width:0.93127972"
       id="tspan100">c  initial values.</tspan></text>
  <text
     style="font-size:22.35071373px;font-family:'Source Code Pro';stroke-width:0.93127972"
     id="text9786"
     xml:space="preserve"
     y="21855.871"
     x="0"
     transform="scale(0.945015,1.0581843)" />
</svg>
